(export (version D)
  (design
    (source /home/kris/Electronics/hello-sd-attiny1614/hello-sd-attiny1614.sch)
    (date "Wed 09 Sep 2020 05:53:55 PM")
    (tool "Eeschema 5.1.6-c6e7f7d~87~ubuntu20.04.1")
    (sheet (number 1) (name /) (tstamps /)
      (title_block
        (title)
        (company)
        (rev)
        (date)
        (source hello-sd-attiny1614.sch)
        (comment (number 1) (value ""))
        (comment (number 2) (value ""))
        (comment (number 3) (value ""))
        (comment (number 4) (value "")))))
  (components
    (comp (ref J3)
      (value Micro_SD_Socket)
      (footprint fab:MicroSD_Amphenol_114-00841-68)
      (datasheet http://www.ti.com/lit/ds/symlink/opa188.pdf)
      (libsource (lib fab) (part Micro_SD_Socket) (description "Zero-Drift, Precision, Low-Noise, Rail-to-Rail Output, 36-V Operational Amplifier, TSOT-23-5"))
      (sheetpath (names /) (tstamps /))
      (tstamp 5F4D5177))
    (comp (ref J1)
      (value FTDI)
      (footprint fab:fab-1X06SMD)
      (datasheet ~)
      (libsource (lib Connector_Generic) (part Conn_01x06) (description "Generic connector, single row, 01x06, script generated (kicad-library-utils/schlib/autogen/connector/)"))
      (sheetpath (names /) (tstamps /))
      (tstamp 5F4D6BA1))
    (comp (ref J2)
      (value UPDI)
      (footprint fab:fab-1X02SMD)
      (datasheet ~)
      (libsource (lib Connector_Generic) (part Conn_01x02) (description "Generic connector, single row, 01x02, script generated (kicad-library-utils/schlib/autogen/connector/)"))
      (sheetpath (names /) (tstamps /))
      (tstamp 5F4D8A49))
    (comp (ref D2)
      (value LED_PRG)
      (footprint fab:LED_1206)
      (datasheet https://optoelectronics.liteon.com/upload/download/DS-22-98-0002/LTST-C150CKT.pdf)
      (libsource (lib fab) (part LED) (description "Light emitting diode, Lite-On Inc. LTST"))
      (sheetpath (names /) (tstamps /))
      (tstamp 5F4D9D0C))
    (comp (ref R1)
      (value 100)
      (footprint fab:R_1206)
      (datasheet ~)
      (libsource (lib fab) (part R) (description Resistor))
      (sheetpath (names /) (tstamps /))
      (tstamp 5F4DA5A4))
    (comp (ref D1)
      (value LED_PWR)
      (footprint fab:LED_1206)
      (datasheet https://optoelectronics.liteon.com/upload/download/DS-22-98-0002/LTST-C150CKT.pdf)
      (libsource (lib fab) (part LED) (description "Light emitting diode, Lite-On Inc. LTST"))
      (sheetpath (names /) (tstamps /))
      (tstamp 5F4E00D4))
    (comp (ref R2)
      (value 100)
      (footprint fab:R_1206)
      (datasheet ~)
      (libsource (lib fab) (part R) (description Resistor))
      (sheetpath (names /) (tstamps /))
      (tstamp 5F4E00DA))
    (comp (ref C1)
      (value 1uF)
      (footprint fab:fab-C1206)
      (libsource (lib fab) (part C) (description "Unpolarized capacitor"))
      (sheetpath (names /) (tstamps /))
      (tstamp 5F4E052C))
    (comp (ref U1)
      (value Microcontroller_ATtiny1614-SSFR)
      (footprint fab:SOIC-14_3.9x8.7mm_P1.27mm)
      (datasheet http://ww1.microchip.com/downloads/en/DeviceDoc/ATtiny1614-16-17-DataSheet-DS40002204A.pdf)
      (libsource (lib fab) (part Microcontroller_ATtiny1614-SSFR) (description "AVR tinyAVR™ 1 Microcontroller IC 8-Bit 16MHz 16KB (16K x 8) FLASH 14-SOIC"))
      (sheetpath (names /) (tstamps /))
      (tstamp 5F4D4361))
    (comp (ref R3)
      (value 0)
      (footprint fab:R_1206)
      (datasheet ~)
      (libsource (lib fab) (part R) (description Resistor))
      (sheetpath (names /) (tstamps /))
      (tstamp 5F50BD99)))
  (libparts
    (libpart (lib Connector_Generic) (part Conn_01x02)
      (description "Generic connector, single row, 01x02, script generated (kicad-library-utils/schlib/autogen/connector/)")
      (docs ~)
      (footprints
        (fp Connector*:*_1x??_*))
      (fields
        (field (name Reference) J)
        (field (name Value) Conn_01x02))
      (pins
        (pin (num 1) (name Pin_1) (type passive))
        (pin (num 2) (name Pin_2) (type passive))))
    (libpart (lib Connector_Generic) (part Conn_01x06)
      (description "Generic connector, single row, 01x06, script generated (kicad-library-utils/schlib/autogen/connector/)")
      (docs ~)
      (footprints
        (fp Connector*:*_1x??_*))
      (fields
        (field (name Reference) J)
        (field (name Value) Conn_01x06))
      (pins
        (pin (num 1) (name Pin_1) (type passive))
        (pin (num 2) (name Pin_2) (type passive))
        (pin (num 3) (name Pin_3) (type passive))
        (pin (num 4) (name Pin_4) (type passive))
        (pin (num 5) (name Pin_5) (type passive))
        (pin (num 6) (name Pin_6) (type passive))))
    (libpart (lib fab) (part C)
      (description "Unpolarized capacitor")
      (footprints
        (fp C_*))
      (fields
        (field (name Reference) C)
        (field (name Value) C)
        (field (name Footprint) fab:fab-C1206))
      (pins
        (pin (num 1) (name ~) (type passive))
        (pin (num 2) (name ~) (type passive))))
    (libpart (lib fab) (part LED)
      (description "Light emitting diode, Lite-On Inc. LTST")
      (docs https://optoelectronics.liteon.com/upload/download/DS-22-98-0002/LTST-C150CKT.pdf)
      (footprints
        (fp LED_*))
      (fields
        (field (name Reference) D)
        (field (name Value) LED)
        (field (name Footprint) fab:LED_1206))
      (pins
        (pin (num 1) (name K) (type passive))
        (pin (num 2) (name A) (type passive))))
    (libpart (lib fab) (part Micro_SD_Socket)
      (description "Zero-Drift, Precision, Low-Noise, Rail-to-Rail Output, 36-V Operational Amplifier, TSOT-23-5")
      (docs http://www.ti.com/lit/ds/symlink/opa188.pdf)
      (footprints
        (fp ?MicroSD*))
      (fields
        (field (name Reference) J)
        (field (name Value) Micro_SD_Socket)
        (field (name Footprint) fab:MicroSD_Amphenol_114-00841-68))
      (pins
        (pin (num 1) (name DAT2) (type BiDi))
        (pin (num 2) (name DAT3/CD) (type BiDi))
        (pin (num 3) (name CMD) (type input))
        (pin (num 4) (name VDD) (type power_in))
        (pin (num 5) (name CLK) (type input))
        (pin (num 6) (name VSS) (type power_in))
        (pin (num 7) (name DAT0) (type BiDi))
        (pin (num 8) (name DAT1) (type BiDi))
        (pin (num 9) (name SHIELD) (type passive))))
    (libpart (lib fab) (part Microcontroller_ATtiny1614-SSFR)
      (description "AVR tinyAVR™ 1 Microcontroller IC 8-Bit 16MHz 16KB (16K x 8) FLASH 14-SOIC")
      (docs http://ww1.microchip.com/downloads/en/DeviceDoc/ATtiny1614-16-17-DataSheet-DS40002204A.pdf)
      (footprints
        (fp SOIC*3.9x8.7mm*P1.27mm*))
      (fields
        (field (name Reference) U)
        (field (name Value) Microcontroller_ATtiny1614-SSFR)
        (field (name Footprint) fab:SOIC-14_3.9x8.7mm_P1.27mm))
      (pins
        (pin (num 1) (name VCC) (type power_in))
        (pin (num 2) (name PA4) (type BiDi))
        (pin (num 3) (name PA5) (type BiDi))
        (pin (num 4) (name PA6) (type BiDi))
        (pin (num 5) (name PA7) (type BiDi))
        (pin (num 6) (name PB3) (type BiDi))
        (pin (num 7) (name PB2) (type BiDi))
        (pin (num 8) (name PB1) (type BiDi))
        (pin (num 9) (name PB0) (type BiDi))
        (pin (num 10) (name ~RESET~/UPDI/PA0) (type BiDi))
        (pin (num 11) (name PA1) (type BiDi))
        (pin (num 12) (name PA2) (type BiDi))
        (pin (num 13) (name PA3) (type BiDi))
        (pin (num 14) (name GND) (type power_in))))
    (libpart (lib fab) (part R)
      (description Resistor)
      (docs ~)
      (footprints
        (fp R_*))
      (fields
        (field (name Reference) R)
        (field (name Value) R)
        (field (name Footprint) fab:R_1206))
      (pins
        (pin (num 1) (name ~) (type passive))
        (pin (num 2) (name ~) (type passive)))))
  (libraries
    (library (logical Connector_Generic)
      (uri /usr/share/kicad/library/Connector_Generic.lib))
    (library (logical fab)
      (uri /home/kris/Electronics/KiCAD/Libraries/kicad/fab.lib)))
  (nets
    (net (code 1) (name /GND)
      (node (ref C1) (pin 2))
      (node (ref R3) (pin 2))
      (node (ref D1) (pin 1))
      (node (ref D2) (pin 1))
      (node (ref J2) (pin 2))
      (node (ref J1) (pin 1))
      (node (ref J3) (pin 9))
      (node (ref U1) (pin 14)))
    (net (code 2) (name "Net-(U1-Pad9)")
      (node (ref U1) (pin 9)))
    (net (code 3) (name /TX)
      (node (ref J1) (pin 4))
      (node (ref U1) (pin 6)))
    (net (code 4) (name /RX)
      (node (ref J1) (pin 5))
      (node (ref U1) (pin 7)))
    (net (code 5) (name /UPDI)
      (node (ref J2) (pin 1))
      (node (ref U1) (pin 10)))
    (net (code 6) (name "Net-(U1-Pad4)")
      (node (ref U1) (pin 4)))
    (net (code 7) (name "Net-(U1-Pad3)")
      (node (ref U1) (pin 3)))
    (net (code 8) (name /LED)
      (node (ref U1) (pin 5))
      (node (ref R1) (pin 1)))
    (net (code 9) (name /MOSI)
      (node (ref U1) (pin 11))
      (node (ref J3) (pin 3)))
    (net (code 10) (name /MISO)
      (node (ref J3) (pin 7))
      (node (ref U1) (pin 12)))
    (net (code 11) (name "Net-(U1-Pad8)")
      (node (ref U1) (pin 8)))
    (net (code 12) (name /SS)
      (node (ref U1) (pin 2))
      (node (ref J3) (pin 2)))
    (net (code 13) (name /VCC)
      (node (ref J3) (pin 4))
      (node (ref C1) (pin 1))
      (node (ref J1) (pin 3))
      (node (ref R2) (pin 1))
      (node (ref U1) (pin 1)))
    (net (code 14) (name /SCK)
      (node (ref J3) (pin 5))
      (node (ref U1) (pin 13)))
    (net (code 15) (name "Net-(J3-Pad8)")
      (node (ref J3) (pin 8)))
    (net (code 16) (name "Net-(J3-Pad1)")
      (node (ref J3) (pin 1)))
    (net (code 17) (name "Net-(J3-Pad6)")
      (node (ref J3) (pin 6))
      (node (ref R3) (pin 1)))
    (net (code 18) (name "Net-(D1-Pad2)")
      (node (ref D1) (pin 2))
      (node (ref R2) (pin 2)))
    (net (code 19) (name "Net-(D2-Pad2)")
      (node (ref D2) (pin 2))
      (node (ref R1) (pin 2)))
    (net (code 20) (name "Net-(J1-Pad6)")
      (node (ref J1) (pin 6)))
    (net (code 21) (name "Net-(J1-Pad2)")
      (node (ref J1) (pin 2)))))